Handling network data in R
…
Handling network data

The data structure for networks in tidygraph contains various
components that you might want to use in your analyses. Sometimes you
want to do things with nodes, other times with edges. Tidygraph contains
the function activate() for that, the result cab be converted to a
tibble dataframe so you can analyze that data in particular:

starwars %>% activate(nodes) %>% as_tibble()

## # A tibble: 22 × 2
##    name           id
##    <chr>       <int>
##  1 R2-D2           1
##  2 CHEWBACCA       2
##  3 C-3PO           3
##  4 LUKE            4
##  5 DARTH VADER     5
##  6 CAMIE           6
##  7 BIGGS           7
##  8 LEIA            8
##  9 BERU            9
## 10 OWEN           10
## # ℹ 12 more rows

starwars %>% activate(edges) %>% as_tibble()

## # A tibble: 60 × 3
##     from    to weight
##    <int> <int>  <int>
##  1     1     2      3
##  2     1     3     17
##  3     1     9      1
##  4     1     4     14
##  5     1    10      1
##  6     1    11      4
##  7     1     8      5
##  8     1     7      1
##  9     1    14      6
## 10     2    11      4
## # ℹ 50 more rows
…
