Network analysis in R
…
The network is a bit diassortative with respect to degree, meaning that nodes of high degree tend to be connected to nodes of lower degree, hence a bit the star-like shape of the network.

Community detection and modularity

With tidygraph, you can also apply commmunity detection algorithms to find densely connected subgraphs. For example, you can use the Louvain algorithm, which is a fast and common way to find a division into communities that maximizes modularity:

starwars %>% 
  activate(nodes) %>% 
  mutate(community=as.character(group_louvain())) -> starwars

starwars %>% 
  activate(nodes) %>% 
  as_tibble()

## # A tibble: 22 x 4
##    name        side     id community
##    <fct>       <fct> <int> <chr>    
##  1 R2-D2       good      1 1        
##  2 CHEWBACCA   good      2 1        
##  3 C-3PO       good      3 1        
##  4 LUKE        good      4 2        
##  5 DARTH VADER evil      5 3        
##  6 CAMIE       good      6 2        
##  7 BIGGS       good      7 2        
##  8 LEIA        good      8 3        
##  9 BERU        good      9 1        
## 10 OWEN        good     10 1        
## # … with 12 more rows
…
## [1] 0.2870833

k-core decomposition

Through tidygraph, you can also calculate the k-core decomposition of the network. It is as imple as using the node_coreness() function in our pipeline:

starwars %>% 
  activate(nodes) %>% 
  mutate(kcore=node_coreness()) %>% 
  as_tibble()

## # A tibble: 22 x 5
##    name        side     id community kcore
##    <fct>       <fct> <int> <chr>     <dbl>
##  1 R2-D2       good      1 1             6
##  2 CHEWBACCA   good      2 1             6
##  3 C-3PO       good      3 1             6
##  4 LUKE        good      4 2             6
##  5 DARTH VADER evil      5 3             3
##  6 CAMIE       good      6 2             2
##  7 BIGGS       good      7 2             4
##  8 LEIA        good      8 3             6
##  9 BERU        good      9 1             4
## 10 OWEN        good     10 1             4
## # … with 12 more rows
…
